<svg width="24" height="24" viewBox="0 0 24 24" fill="none" xmlns="http://www.w3.org/2000/svg">
    <path fill-rule="evenodd" clip-rule="evenodd" d="M5 2H7V4H17V2H19V4H21V22H3V4H5V2ZM15 10C15 11.6569 13.6569 13 12 13C10.3431 13 9 11.6569 9 10C9 8.34315 10.3431 7 12 7C13.6569 7 15 8.34315 15 10ZM10 14C7.79086 14 6 15.7909 6 18V19H19V18C19 15.7909 17.2091 14 15 14H10Z" fill="#7A8A97"/>
</svg>
