<svg width="10" height="10" viewBox="0 0 10 10" fill="none" xmlns="http://www.w3.org/2000/svg">
    <path fill-rule="evenodd" clip-rule="evenodd" d="M2 3H3V5V6H2.5L5 8.5L7.5 6H7V5V3H8V5L8.5 5L9 5H10L9 6L5 10L1 6L0 5L1.5 5L2 5V3Z" fill="#fff"/>
</svg>
