<svg width="14" height="14" viewBox="0 0 14 14" fill="none" xmlns="http://www.w3.org/2000/svg">
    <path d="M9.39685 2.62329L11.3767 4.60319L5.12444 10.8555L3.14454 8.8756L9.39685 2.62329Z" fill="#161E29"/>
    <path d="M2.62341 9.39673L4.60331 11.3766L2.05028 11.9498L2.62341 9.39673Z" fill="#161E29"/>
    <path d="M10.6063 1.41386C10.8016 1.21859 11.1182 1.21859 11.3134 1.41386L12.5862 2.68665C12.7815 2.88191 12.7815 3.19849 12.5862 3.39376L11.8977 4.08225L9.91782 2.10235L10.6063 1.41386Z" fill="#161E29"/>
</svg>
