<?xml version="1.0" standalone="no"?>
<!DOCTYPE svg PUBLIC "-//W3C//DTD SVG 20010904//EN"
 "http://www.w3.org/TR/2001/REC-SVG-20010904/DTD/svg10.dtd">
<svg version="1.0" xmlns="http://www.w3.org/2000/svg"
 width="225.000000pt" height="201.000000pt" viewBox="0 0 225.000000 201.000000"
 preserveAspectRatio="xMidYMid meet">

<g transform="translate(0.000000,201.000000) scale(0.100000,-0.100000)"
fill="#000000" stroke="none">
<path d="M905 1990 c-132 -21 -304 -88 -415 -163 -209 -141 -365 -382 -409
-631 -20 -110 -15 -109 60 2 121 178 293 356 460 477 116 83 332 189 501 247
71 24 128 46 128 49 0 21 -229 33 -325 19z"/>
<path d="M1420 1970 c-261 -29 -470 -109 -728 -280 -412 -274 -714 -767 -672
-1099 17 -130 94 -265 199 -347 30 -24 56 -42 58 -40 1 1 -11 34 -27 73 -88
209 -51 428 121 725 103 177 319 424 484 553 264 207 618 357 875 371 122 7
137 13 75 30 -64 18 -276 25 -385 14z"/>
<path d="M1720 1910 c-458 -45 -965 -389 -1277 -867 -204 -312 -262 -646 -142
-819 59 -87 158 -145 274 -164 73 -12 92 -7 60 16 -127 91 -181 234 -156 413
61 438 501 969 1026 1238 163 83 308 128 490 149 l60 7 -40 12 c-55 16 -204
24 -295 15z"/>
<path d="M1870 1820 c-331 -72 -671 -299 -977 -654 -248 -288 -349 -536 -309
-766 44 -252 242 -376 544 -341 341 39 627 234 777 531 125 247 137 526 34
795 -16 44 -39 91 -49 105 l-20 25 15 -50 c47 -153 58 -206 62 -320 4 -99 1
-135 -16 -207 -71 -300 -326 -540 -640 -604 -202 -40 -341 11 -391 143 -74
198 72 502 404 837 276 279 608 465 885 495 l66 7 -40 12 c-60 18 -246 14
-345 -8z"/>
</g>
</svg>
