<svg xmlns="http://www.w3.org/2000/svg" xmlns:xlink="http://www.w3.org/1999/xlink" width="15px" height="44px" viewBox="0 0 15 44" version="1.1">
    <!-- Generator: sketchtool 54.1 (76490) - https://sketchapp.com -->
    <title>5754145F-1775-4584-B2DA-7AF321F4D264</title>
    <desc>Created with sketchtool.</desc>
    <g id="Page-1" stroke="none" stroke-width="1" fill="none" fill-rule="evenodd">
        <g id="Menu---collapsed" transform="translate(-87.000000, -38.000000)" fill="#181F2C" fill-rule="nonzero">
            <g id="button-expand" transform="translate(87.000000, 38.000000)">
                <path d="M0.1768,42.6877046 C1.54462917,44.0271706 3.73239237,44.0271706 5.10022154,42.6877046 L13.4169108,35.0161846 C14.453419,34.0027707 15.0260377,32.6067077 14.99968,31.1573415 L14.9996062,13.1503385 C15.0259404,11.7009753 14.4532993,10.3049252 13.4167754,9.29153231 L5.09998769,1.61997538 C3.7321627,0.28051083 1.54440345,0.28051083 0.176578462,1.61997538 L0.1768,42.6877046 Z" id="button-expand_shape"/>
            </g>
        </g>
    </g>
</svg>
