<svg width="24" height="24" viewBox="0 0 24 24" fill="none" xmlns="http://www.w3.org/2000/svg">
    <path d="M5.45465 2H20.0001V20.3333H5.45465V2Z" fill="#DAE0E4"/>
    <path fill-rule="evenodd" clip-rule="evenodd" d="M19.0001 3H6.45465V19.3333H19.0001V3ZM5.45465 2V20.3333H20.0001V2H5.45465Z" fill="#7A8A97"/>
    <path d="M4 3.66675H18.5455V22.0001H4V3.66675Z" fill="#DAE0E4"/>
    <path fill-rule="evenodd" clip-rule="evenodd" d="M17.5455 4.66675H5V21.0001H17.5455V4.66675ZM4 3.66675V22.0001H18.5455V3.66675H4Z" fill="#7A8A97"/>
    <path fill-rule="evenodd" clip-rule="evenodd" d="M6.18188 6.8335H16.3637V7.8335H6.18188V6.8335Z" fill="#7A8A97"/>
    <path fill-rule="evenodd" clip-rule="evenodd" d="M6.18188 9.3335H16.3637V10.3335H6.18188V9.3335Z" fill="#7A8A97"/>
    <path fill-rule="evenodd" clip-rule="evenodd" d="M6.18188 11.8335H16.3637V12.8335H6.18188V11.8335Z" fill="#7A8A97"/>
    <path fill-rule="evenodd" clip-rule="evenodd" d="M6.18188 14.3335H16.3637V15.3335H6.18188V14.3335Z" fill="#7A8A97"/>
    <path fill-rule="evenodd" clip-rule="evenodd" d="M6.18188 16.8335H13.4546V17.8335H6.18188V16.8335Z" fill="#7A8A97"/>
</svg>
